# 3ds Max Wavefront OBJ Exporter v0.97b - (c)2007 guruware
# File Created: 25.12.2018 22:44:21

mtllib CamaroWheelBackLeft.mtl

#
# object Cylinder011
#

v  8.7231 4.7889 -22.5620
v  8.7231 7.6680 -21.6265
v  12.3416 7.6680 -21.6265
v  12.3416 4.7889 -22.5620
v  8.7231 9.4474 -19.1773
v  12.3416 9.4474 -19.1773
v  8.7231 9.4474 -16.1500
v  12.3416 9.4474 -16.1500
v  8.7231 7.6680 -13.7009
v  12.3416 7.6680 -13.7009
v  8.7231 4.7889 -12.7654
v  12.3416 4.7889 -12.7654
v  8.7231 1.9097 -13.7009
v  12.3416 1.9097 -13.7009
v  8.7231 0.1303 -16.1500
v  12.3416 0.1303 -16.1500
v  8.7231 0.1303 -19.1774
v  12.3416 0.1303 -19.1774
v  8.7231 1.9097 -21.6265
v  12.3416 1.9097 -21.6265
v  8.5556 0.7658 -18.9709
v  8.5556 0.7658 -16.3565
v  8.5556 2.3024 -14.2415
v  8.5556 4.7889 -13.4336
v  8.5556 7.2753 -14.2414
v  8.5556 8.8120 -16.3565
v  8.5556 8.8119 -18.9709
v  8.5556 7.2753 -21.0859
v  8.5556 4.7889 -21.8938
v  8.5556 2.3024 -21.0859
v  8.5556 7.5863 -21.5140
v  8.5556 4.7889 -22.4230
v  8.5556 9.3152 -19.1344
v  8.5556 9.3152 -16.1930
v  8.5556 7.5863 -13.8134
v  8.5556 4.7889 -12.9044
v  8.5556 1.9914 -13.8134
v  8.5556 0.2625 -16.1930
v  8.5556 0.2625 -19.1344
v  8.5556 1.9914 -21.5140
v  12.3786 7.2848 -21.0921
v  12.3786 4.7983 -21.9000
v  12.5092 4.7889 -22.4230
v  12.5092 7.5863 -21.5140
v  12.3786 2.3119 -21.0921
v  12.5092 1.9914 -21.5140
v  12.3786 0.7752 -18.9770
v  12.5092 0.2625 -19.1344
v  12.3786 0.7752 -16.3626
v  12.5092 0.2625 -16.1930
v  12.3786 2.3119 -14.2476
v  12.5092 1.9914 -13.8134
v  12.3786 4.7983 -13.4397
v  12.5092 4.7889 -12.9044
v  12.3786 7.2848 -14.2476
v  12.5092 7.5863 -13.8134
v  12.3786 8.8214 -16.3626
v  12.5092 9.3152 -16.1930
v  12.3786 8.8214 -18.9770
v  12.5092 9.3152 -19.1344
v  9.9572 7.2848 -21.0921
v  9.9572 4.7983 -21.9000
v  9.9572 8.8214 -18.9770
v  9.9572 8.8214 -16.3626
v  9.9572 7.2848 -14.2476
v  9.9572 4.7983 -13.4397
v  9.9572 2.3119 -14.2476
v  9.9572 0.7752 -16.3626
v  9.9572 0.7752 -18.9770
v  9.9572 2.3119 -21.0921
v  9.9572 6.7366 -20.3377
v  9.9572 4.7983 -20.9675
v  9.9572 7.9346 -18.6888
v  9.9572 7.9346 -16.6508
v  9.9572 6.7367 -15.0020
v  9.9572 4.7983 -14.3722
v  9.9572 2.8600 -15.0020
v  9.9572 1.6621 -16.6508
v  9.9572 1.6621 -18.6889
v  9.9572 2.8600 -20.3377
v  10.6456 5.2530 -18.3092
v  10.6456 5.5434 -17.9095
v  10.6471 5.5434 -17.4154
v  10.6456 5.2530 -17.0157
v  10.6471 4.7831 -16.8630
v  10.6471 4.3132 -17.0157
v  10.6456 4.0228 -17.4154
v  10.6471 4.0228 -17.9095
v  10.6456 4.3132 -18.3092
v  10.6471 4.7831 -18.4619
v  12.0847 6.2607 -15.6287
v  12.0847 4.7831 -15.1486
v  12.0847 7.1739 -18.4393
v  12.0847 7.1739 -16.8856
v  12.0847 4.7831 -20.1763
v  12.0847 6.2607 -19.6962
v  12.0847 2.3923 -18.4393
v  12.0847 3.3055 -19.6962
v  12.0847 3.3055 -15.6287
v  12.0847 2.3923 -16.8856
v  12.0847 7.2684 -14.2418
v  12.0847 4.7831 -13.4342
v  12.0847 8.8044 -18.9690
v  12.0847 8.8044 -16.3559
v  12.0847 4.7831 -21.8907
v  12.0847 7.2684 -21.0832
v  12.0847 0.7618 -18.9691
v  12.0847 2.2978 -21.0832
v  12.0847 2.2978 -14.2418
v  12.0847 0.7618 -16.3559
v  9.9572 6.3453 -18.6386
v  9.9572 5.3486 -19.8606
v  9.9572 7.0280 -17.0953
v  10.6398 4.3132 -18.3092
v  9.4542 4.3132 -18.3092
v  9.8067 4.7831 -18.4619
v  9.4542 5.2530 -18.3092
v  10.6398 5.2530 -18.3092
v  9.4542 5.5434 -17.9095
v  10.6398 5.5434 -17.9095
v  9.8067 5.5434 -17.4154
v  9.4542 5.2530 -17.0157
v  10.6398 5.2530 -17.0157
v  9.8067 4.7831 -16.8630
v  9.8067 4.3132 -17.0157
v  9.4542 4.0228 -17.4154
v  10.6398 4.0228 -17.4154
v  9.8067 4.0228 -17.9095
# 128 vertices

vn -0.0000 -0.0000 -1.0000
vn 0.0000 0.5878 -0.8090
vn -0.0000 0.5878 -0.8090
vn 0.0000 0.9511 -0.3090
vn 0.0000 0.9511 0.3090
vn 0.0000 0.5878 0.8090
vn 0.0000 0.0000 1.0000
vn -0.0000 -0.5878 0.8090
vn -0.0000 -0.9511 0.3090
vn -0.0000 -0.9511 -0.3090
vn -0.0000 -0.5878 -0.8090
vn -1.0000 -0.0000 0.0000
vn -1.0000 0.0000 0.0000
vn -1.0000 -0.0000 -0.0000
vn -1.0000 0.0000 -0.0000
vn 0.9747 -0.1319 0.1807
vn 0.9751 -0.0011 0.2219
vn 0.9751 0.0006 0.2219
vn 0.9747 -0.1313 0.1811
vn 0.9757 0.1279 0.1781
vn 0.9757 0.1294 0.1769
vn 0.9762 0.2058 0.0679
vn 0.9762 0.2063 0.0665
vn 0.9766 0.2048 -0.0662
vn 0.9766 0.2047 -0.0667
vn 0.9765 0.1263 -0.1745
vn 0.9765 0.1268 -0.1741
vn 0.9761 -0.0010 -0.2171
vn 0.9762 0.0006 -0.2171
vn 0.9756 -0.1302 -0.1770
vn 0.9756 -0.1286 -0.1782
vn 0.9750 -0.2118 -0.0678
vn 0.9750 -0.2113 -0.0692
vn 0.9746 -0.2128 0.0695
vn 0.9746 -0.2130 0.0690
vn -0.0000 0.9511 -0.3090
vn -0.0000 0.5878 0.8090
vn 1.0000 -0.0000 -0.0000
vn 1.0000 0.0000 -0.0000
vn 1.0000 0.0000 0.0000
vn -0.6544 0.2337 -0.7191
vn -0.6544 0.6117 -0.4444
vn -0.6544 0.7561 0.0000
vn -0.6544 0.6117 0.4444
vn -0.6544 0.2337 0.7191
vn -0.6544 -0.2337 0.7191
vn -0.6544 -0.6117 0.4444
vn -0.6544 -0.7561 -0.0000
vn -0.6544 -0.6117 -0.4444
vn -0.6544 -0.2337 -0.7191
vn 0.6544 0.2337 -0.7191
vn 0.6544 -0.2337 -0.7191
vn 0.6544 -0.6117 -0.4444
vn 0.6544 -0.7561 -0.0000
vn 0.6544 -0.6117 0.4444
vn 0.6544 -0.2337 0.7191
vn 0.6544 0.2337 0.7191
vn 0.6544 0.6117 0.4444
vn 0.6544 0.7561 0.0000
vn 0.6544 0.6117 -0.4444
vn 1.0000 0.0004 -0.0004
vn 1.0000 0.0036 -0.0026
vn 1.0000 0.0008 -0.0002
vn 1.0000 0.0050 0.0068
vn 1.0000 0.0002 -0.0001
vn 1.0000 0.0014 -0.0042
vn 1.0000 0.0001 -0.0005
vn 1.0000 0.0080 0.0026
vn 1.0000 0.0005 0.0007
vn 1.0000 -0.0000 0.0084
vn 0.7794 -0.1924 -0.5963
vn 0.9618 -0.0846 -0.2603
vn 0.9618 -0.0844 -0.2602
vn 0.7796 -0.1916 -0.5962
vn 0.7794 -0.6266 -0.0012
vn 0.9618 -0.2737 -0.0000
vn 0.9618 -0.2736 -0.0001
vn 0.7796 -0.6263 -0.0020
vn 0.7789 -0.1926 0.5968
vn 0.9619 -0.0845 0.2601
vn 0.9619 -0.0844 0.2602
vn 0.7787 -0.1920 0.5973
vn 0.7789 0.5081 0.3676
vn 0.9619 0.2212 0.1607
vn 0.9619 0.2214 0.1607
vn 0.7787 0.5088 0.3672
vn 0.7789 0.5066 -0.3696
vn 0.9619 0.2212 -0.1607
vn 0.9619 0.2212 -0.1609
vn 0.7787 0.5064 -0.3704
vn 1.0000 -0.0000 0.0000
vn -0.0000 0.0000 -1.0000
vn -0.0000 0.6452 -0.7640
vn 0.0000 0.5867 -0.8098
vn 0.0000 0.9260 -0.3775
vn 0.0000 0.9515 -0.3077
vn -0.0000 0.9511 0.3090
vn -0.0000 0.0503 0.9987
vn 0.0000 -0.0014 1.0000
vn 0.0000 -0.6278 0.7784
vn 0.0000 -0.5867 0.8098
# 101 vertex normals

vt 0.7500 0.0424 1.9875
vt 0.8576 0.0424 2.0610
vt 0.8576 0.9576 2.0610
vt 0.7500 0.9576 1.9875
vt 0.9544 0.0424 2.1747
vt 0.9544 0.9576 2.1747
vt 1.0456 0.0424 2.1747
vt 1.0456 0.9576 2.1747
vt 0.0456 0.0424 2.1747
vt 0.1424 0.0424 2.0610
vt 0.1424 0.9576 2.0610
vt 0.0456 0.9576 2.1747
vt 0.2500 0.0424 1.9875
vt 0.2500 0.9576 1.9875
vt 0.3576 0.0424 2.0610
vt 0.3576 0.9576 2.0610
vt 0.4544 0.0424 2.1747
vt 0.4544 0.9576 2.1747
vt 0.5456 0.0424 2.1747
vt 0.5456 0.9576 2.1747
vt 0.6424 0.0424 2.0610
vt 0.6424 0.9576 2.0610
vt 0.5456 0.0000 2.0053
vt 0.4544 0.0000 2.0053
vt 0.3576 0.0000 1.9004
vt 0.2500 0.0000 1.8326
vt 0.1424 0.0000 1.9004
vt 0.0456 0.0000 2.0053
vt -0.0456 0.0000 2.0053
vt -0.1424 0.0000 1.9004
vt -0.2500 0.0000 1.8326
vt -0.3576 0.0000 1.9004
vt 0.7500 0.0000 1.8326
vt 0.8576 0.0000 1.9004
vt 0.8576 0.0000 2.0025
vt 0.7500 0.0000 1.9311
vt 0.9544 0.0000 2.0053
vt 0.9544 0.0000 2.1130
vt 1.0456 0.0000 2.0053
vt 1.0456 0.0000 2.1130
vt 0.1424 0.0000 2.0025
vt 0.0456 0.0000 2.1130
vt 0.2500 0.0000 1.9311
vt 0.3576 0.0000 2.0025
vt 0.4544 0.0000 2.1130
vt 0.5456 0.0000 2.1130
vt 0.6424 0.0000 1.9004
vt 0.6424 0.0000 2.0025
vt 0.8576 1.0000 1.9004
vt 0.7500 1.0000 1.8326
vt 0.7500 1.0000 1.9311
vt 0.8576 1.0000 2.0025
vt 0.6424 1.0000 1.9004
vt 0.6424 1.0000 2.0025
vt 0.5456 1.0000 2.0053
vt 0.5456 1.0000 2.1130
vt 0.4544 1.0000 2.0053
vt 0.4544 1.0000 2.1130
vt 0.3576 1.0000 1.9004
vt 0.3576 1.0000 2.0025
vt 0.2500 1.0000 1.8326
vt 0.2500 1.0000 1.9311
vt 0.1424 1.0000 1.9004
vt 0.1424 1.0000 2.0025
vt 0.0456 1.0000 2.0053
vt 0.0456 1.0000 2.1130
vt -0.0456 1.0000 2.0053
vt -0.0456 1.0000 2.1130
vt 0.9544 1.0000 2.0053
vt 0.9544 1.0000 2.1130
vt 0.8576 0.0967 1.9004
vt 0.7500 0.0967 1.8326
vt 0.9544 0.0967 2.0053
vt 1.0456 1.0000 2.0053
vt 1.0456 0.0967 2.0053
vt 0.1424 0.0967 1.9004
vt 0.0456 0.0967 2.0053
vt 0.2500 0.0967 1.8326
vt 0.3576 0.0967 1.9004
vt 0.4544 0.0967 2.0053
vt 0.5456 0.0967 2.0053
vt 0.6424 0.0967 1.9004
vt 0.8576 0.0967 1.4815
vt 0.7500 0.0967 1.4286
vt 0.9544 0.0967 1.5632
vt 1.0456 0.0967 1.5632
vt 0.1424 0.0967 1.4815
vt 0.0456 0.0967 1.5632
vt 0.2500 0.0967 1.4286
vt 0.3576 0.0967 1.4815
vt 0.4544 0.0967 1.5632
vt 0.5456 0.0967 1.5632
vt 0.6424 0.0967 1.4815
vt -0.0456 0.9576 2.1747
vt 0.8568 0.7788 0.3572
vt 0.9543 0.7788 0.3764
vt 1.0461 0.7788 0.3767
vt 1.1435 0.7788 0.3580
vt 1.2512 0.7788 0.3469
vt 1.3583 0.7788 0.3612
vt 1.4545 0.7788 0.3816
vt 1.5451 0.7788 0.3813
vt 1.6414 0.7788 0.3604
vt 1.7488 0.7788 0.3459
vt 0.1435 0.7788 0.3580
vt 0.1428 1.0005 1.1281
vt 0.2504 1.0005 1.0896
vt 0.2512 0.7788 0.3469
vt -0.0457 0.7788 0.3764
vt -0.0456 1.0005 1.1891
vt 0.0457 1.0005 1.1893
vt 0.0461 0.7788 0.3767
vt 0.7488 0.7788 0.3459
vt 0.7496 1.0005 1.0886
vt 0.8573 1.0005 1.1274
vt 0.5451 0.7788 0.3813
vt 0.5454 1.0005 1.1940
vt 0.6421 1.0005 1.1306
vt 0.6414 0.7788 0.3604
vt 0.3583 0.7788 0.3612
vt 0.3578 1.0005 1.1314
vt 0.4545 1.0005 1.1943
vt 0.4545 0.7788 0.3816
vt 0.1426 1.0005 1.8983
vt 0.2502 1.0005 1.8323
vt 0.9544 1.0005 2.0017
vt 1.0457 1.0005 2.0020
vt 1.0457 1.0005 1.1893
vt 0.9544 1.0005 1.1891
vt 0.7498 1.0005 1.8313
vt 0.8574 1.0005 1.8976
vt 0.5455 1.0005 2.0067
vt 0.6422 1.0005 1.9008
vt 0.3577 1.0005 1.9015
vt 0.4545 1.0005 2.0070
vt 0.5224 0.3955 0.5000
vt 0.6784 0.3736 0.5000
vt 0.6434 0.5514 0.5000
vt 0.3565 0.3627 0.2500
vt 0.4409 0.5655 0.2500
vt 0.9769 0.5000 0.5000
vt 0.8858 0.7948 1.0000
vt 0.8168 0.5837 0.7500
vt 0.6401 0.7352 0.7500
vt 0.4169 0.8391 0.5000
vt 0.6474 0.9769 0.5000
vt 0.3526 0.9769 0.5000
vt 0.1142 0.7948 0.5000
vt 0.0231 0.5000 0.5000
vt 0.1142 0.2052 0.0000
vt 0.3526 0.0231 0.5000
vt 0.6474 0.0231 0.5000
vt 0.8858 0.2052 0.5000
# 153 texture coords

g Cylinder011
usemtl Material__644
s 8
f 1/1/1 2/2/2 3/3/3 
f 3/3/3 4/4/1 1/1/1 
f 2/2/2 5/5/4 6/6/4 
f 6/6/4 3/3/3 2/2/2 
f 5/5/4 7/7/5 8/8/5 
f 8/8/5 6/6/4 5/5/4 
f 7/9/5 9/10/6 10/11/6 
f 10/11/6 8/12/5 7/9/5 
f 9/10/6 11/13/7 12/14/7 
f 12/14/7 10/11/6 9/10/6 
f 11/13/7 13/15/8 14/16/8 
f 14/16/8 12/14/7 11/13/7 
f 13/15/8 15/17/9 16/18/9 
f 16/18/9 14/16/8 13/15/8 
f 15/17/9 17/19/10 18/20/10 
f 18/20/10 16/18/9 15/17/9 
f 17/19/10 19/21/11 20/22/11 
f 20/22/11 18/20/10 17/19/10 
f 19/21/11 1/1/1 4/4/1 
f 4/4/1 20/22/11 19/21/11 
usemtl Material__757
s 1
f 21/23/12 22/24/12 23/25/13 
f 23/25/13 24/26/13 25/27/13 
f 25/27/13 26/28/14 27/29/15 
f 27/29/15 28/30/15 29/31/13 
f 25/27/13 27/29/15 29/31/13 
f 23/25/13 25/27/13 29/31/13 
f 21/23/12 23/25/13 29/31/13 
f 30/32/13 21/23/12 29/31/13 
usemtl Material__758
s off
f 29/33/12 28/34/12 31/35/12 
f 31/35/12 32/36/12 29/33/12 
f 28/34/12 27/37/12 33/38/12 
f 33/38/12 31/35/12 28/34/12 
f 27/37/14 26/39/14 34/40/14 
f 34/40/12 33/38/12 27/37/12 
f 26/28/14 25/27/14 35/41/14 
f 35/41/14 34/42/14 26/28/14 
f 25/27/14 24/26/14 36/43/14 
f 36/43/14 35/41/14 25/27/14 
f 24/26/15 23/25/15 37/44/15 
f 37/44/15 36/43/15 24/26/15 
f 23/25/15 22/24/15 38/45/15 
f 38/45/15 37/44/15 23/25/15 
f 22/24/13 21/23/13 39/46/13 
f 39/46/13 38/45/13 22/24/13 
f 21/23/13 30/47/13 40/48/13 
f 40/48/13 39/46/13 21/23/13 
f 30/47/13 29/33/13 32/36/13 
f 32/36/13 40/48/13 30/47/13 
usemtl Material__72
s 16
f 41/49/16 42/50/17 43/51/18 
f 43/51/18 44/52/19 41/49/16 
f 42/50/17 45/53/20 46/54/21 
f 46/54/21 43/51/18 42/50/17 
f 45/53/20 47/55/22 48/56/23 
f 48/56/23 46/54/21 45/53/20 
f 47/55/22 49/57/24 50/58/25 
f 50/58/25 48/56/23 47/55/22 
f 49/57/24 51/59/26 52/60/27 
f 52/60/27 50/58/25 49/57/24 
f 51/59/26 53/61/28 54/62/29 
f 54/62/29 52/60/27 51/59/26 
f 53/61/28 55/63/30 56/64/31 
f 56/64/31 54/62/29 53/61/28 
f 55/63/30 57/65/32 58/66/33 
f 58/66/33 56/64/31 55/63/30 
f 57/65/32 59/67/34 60/68/35 
f 60/68/35 58/66/33 57/65/32 
f 59/69/34 41/49/16 44/52/19 
f 44/52/19 60/70/35 59/69/34 
usemtl Material__26
s 4
f 42/50/7 41/49/8 61/71/8 
f 61/71/8 62/72/7 42/50/7 
f 41/49/8 59/69/9 63/73/9 
f 63/73/9 61/71/8 41/49/8 
f 59/69/9 57/74/10 64/75/10 
f 64/75/10 63/73/9 59/69/9 
f 57/65/10 55/63/11 65/76/11 
f 65/76/11 64/77/10 57/65/10 
f 55/63/11 53/61/1 66/78/1 
f 66/78/1 65/76/11 55/63/11 
f 53/61/1 51/59/3 67/79/3 
f 67/79/3 66/78/1 53/61/1 
f 51/59/3 49/57/4 68/80/36 
f 68/80/36 67/79/3 51/59/3 
f 49/57/4 47/55/5 69/81/5 
f 69/81/5 68/80/36 49/57/4 
f 47/55/5 45/53/37 70/82/37 
f 70/82/37 69/81/5 47/55/5 
f 45/53/37 42/50/7 62/72/7 
f 62/72/7 70/82/37 45/53/37 
usemtl Material__99
s off
f 62/72/38 61/71/38 71/83/38 
f 71/83/38 72/84/38 62/72/38 
f 61/71/39 63/73/39 73/85/39 
f 73/85/40 71/83/40 61/71/40 
f 63/73/39 64/75/39 74/86/39 
f 74/86/39 73/85/39 63/73/39 
f 64/77/38 65/76/38 75/87/38 
f 75/87/40 74/88/40 64/77/40 
f 65/76/38 66/78/38 76/89/38 
f 76/89/38 75/87/38 65/76/38 
f 66/78/38 67/79/38 77/90/38 
f 77/90/38 76/89/38 66/78/38 
f 67/79/39 68/80/39 78/91/39 
f 78/91/40 77/90/40 67/79/40 
f 68/80/39 69/81/39 79/92/39 
f 79/92/39 78/91/39 68/80/39 
f 69/81/38 70/82/38 80/93/38 
f 80/93/40 79/92/40 69/81/40 
f 70/82/38 62/72/38 72/84/38 
f 72/84/38 80/93/38 70/82/38 
usemtl Material__644
f 32/36/41 31/35/41 2/2/41 
f 2/2/41 1/1/41 32/36/41 
f 31/35/42 33/38/42 5/5/42 
f 5/5/42 2/2/42 31/35/42 
f 33/38/43 34/40/43 7/7/43 
f 7/7/43 5/5/43 33/38/43 
f 34/42/44 35/41/44 9/10/44 
f 9/10/44 7/9/44 34/42/44 
f 35/41/45 36/43/45 11/13/45 
f 11/13/45 9/10/45 35/41/45 
f 36/43/46 37/44/46 13/15/46 
f 13/15/46 11/13/46 36/43/46 
f 37/44/47 38/45/47 15/17/47 
f 15/17/47 13/15/47 37/44/47 
f 38/45/48 39/46/48 17/19/48 
f 17/19/48 15/17/48 38/45/48 
f 39/46/49 40/48/49 19/21/49 
f 19/21/49 17/19/49 39/46/49 
f 40/48/50 32/36/50 1/1/50 
f 1/1/50 19/21/50 40/48/50 
f 44/52/51 43/51/51 4/4/51 
f 4/4/51 3/3/51 44/52/51 
f 43/51/52 46/54/52 20/22/52 
f 20/22/52 4/4/52 43/51/52 
f 46/54/53 48/56/53 18/20/53 
f 18/20/53 20/22/53 46/54/53 
f 48/56/54 50/58/54 16/18/54 
f 16/18/54 18/20/54 48/56/54 
f 50/58/55 52/60/55 14/16/55 
f 14/16/55 16/18/55 50/58/55 
f 52/60/56 54/62/56 12/14/56 
f 12/14/56 14/16/56 52/60/56 
f 54/62/57 56/64/57 10/11/57 
f 10/11/57 12/14/57 54/62/57 
f 56/64/58 58/66/58 8/12/58 
f 8/12/58 10/11/58 56/64/58 
f 58/66/59 60/68/59 6/94/59 
f 6/94/59 8/12/59 58/66/59 
f 60/70/60 44/52/60 3/3/60 
f 3/3/60 6/6/60 60/70/60 
usemtl Material__72
s 32
f 81/95/61 82/96/62 83/97/63 
f 83/97/63 84/98/64 85/99/65 
f 85/99/65 86/100/66 87/101/67 
f 87/101/67 88/102/68 89/103/69 
f 85/99/65 87/101/67 89/103/69 
f 83/97/63 85/99/65 89/103/69 
f 81/95/61 83/97/63 89/103/69 
f 90/104/70 81/95/61 89/103/69 
s 1024
f 84/105/71 91/106/72 92/107/73 
f 92/107/73 85/108/74 84/105/71 
f 82/109/75 93/110/76 94/111/77 
f 94/111/77 83/112/78 82/109/75 
f 90/113/79 95/114/80 96/115/81 
f 96/115/81 81/95/82 90/113/79 
f 88/116/83 97/117/84 98/118/85 
f 98/118/85 89/119/86 88/116/83 
f 86/120/87 99/121/88 100/122/89 
f 100/122/89 87/123/90 86/120/87 
f 101/124/38 102/125/38 92/107/73 
f 92/107/73 91/106/72 101/124/38 
f 103/126/38 104/127/38 94/128/77 
f 94/128/77 93/129/76 103/126/38 
f 105/130/38 106/131/38 96/115/81 
f 96/115/81 95/114/80 105/130/38 
f 107/132/91 108/133/38 98/118/85 
f 98/118/85 97/117/84 107/132/91 
f 109/134/38 110/135/38 100/122/89 
f 100/122/89 99/121/88 109/134/38 
usemtl Material__73
s 1
f 111/136/91 112/137/91 71/138/91 
f 113/139/38 111/136/91 71/138/91 
f 113/139/38 71/138/91 73/140/91 
usemtl Material__49
f 72/141/38 71/142/91 112/143/91 
f 112/143/91 111/144/91 113/145/38 
f 113/145/38 73/146/91 74/147/38 
f 113/145/38 74/147/38 75/148/38 
f 113/145/38 75/148/38 76/149/38 
f 112/143/91 113/145/38 76/149/38 
f 72/141/38 112/143/91 76/149/38 
f 76/149/38 77/150/91 78/151/38 
f 72/141/38 76/149/38 78/151/38 
f 72/141/38 78/151/38 79/152/38 
f 72/141/38 79/152/38 80/153/40 
usemtl Material__26
f 114/33/11 115/33/11 116/33/1 
f 116/33/1 90/33/92 114/33/11 
f 90/33/92 116/33/1 117/33/93 
f 117/33/93 118/33/94 90/33/92 
f 118/33/94 117/33/93 119/33/95 
f 119/33/95 120/33/96 118/33/94 
f 120/33/96 119/33/95 121/33/97 
f 121/33/97 83/33/97 120/33/96 
f 83/33/97 121/33/97 122/33/37 
f 122/33/37 123/33/37 83/33/97 
f 123/33/37 122/33/37 124/33/98 
f 124/33/98 85/33/99 123/33/37 
f 85/33/99 124/33/98 125/33/100 
f 125/33/100 86/33/101 85/33/99 
f 86/33/101 125/33/100 126/33/9 
f 126/33/9 127/33/9 86/33/101 
f 127/33/9 126/33/9 128/33/10 
f 128/33/10 88/33/10 127/33/9 
f 88/33/10 128/33/10 115/33/11 
f 115/33/11 114/33/11 88/33/10 
# 210 faces

