# 3ds Max Wavefront OBJ Exporter v0.97b - (c)2007 guruware
# File Created: 25.12.2018 22:51:24

mtllib CamaroDoorRight.mtl

#
# object Object004
#

v  -10.9909 7.3962 -9.4088
v  -11.0375 7.3543 -7.6104
v  -11.0913 8.5385 -8.0814
v  -11.0346 8.5783 -9.8341
v  -10.6222 6.2727 -8.8981
v  -10.6857 6.2244 -7.2074
v  -10.3848 5.4663 -8.6095
v  -10.4309 5.4038 -6.9147
v  -10.5381 4.6300 -8.0231
v  -10.5796 4.6139 -6.5719
v  -10.5381 4.1494 -7.7247
v  -10.5776 4.1302 -6.3764
v  -10.1697 11.8733 -1.6770
v  -10.1483 11.9382 2.3400
v  -9.9818 12.1191 2.3399
v  -9.9605 12.1839 -1.6771
v  -10.1052 11.9905 5.8645
v  -10.0959 12.0018 6.6264
v  -9.9779 12.1170 6.3842
v  -10.1273 11.9637 4.0579
v  -10.2225 11.7802 -1.6685
v  -10.2526 11.8478 2.3468
v  -10.3422 11.8622 4.1423
v  -10.4255 11.8755 5.8127
v  -10.4863 11.8853 7.0318
v  -10.8021 13.2174 3.5558
v  -10.7458 13.1156 2.2876
v  -11.0559 13.1490 2.1518
v  -11.1260 13.2330 3.1806
v  -10.6839 12.2867 4.9651
v  -10.6200 12.2733 3.5925
v  -10.5125 12.3241 3.5503
v  -10.4051 12.3748 3.5081
v  -10.3636 12.4017 5.0169
v  -11.1605 12.4740 4.3452
v  -11.0934 12.4253 2.8722
v  -10.7545 12.4843 2.9020
v  -10.4943 12.7452 2.7350
v  -10.5829 12.8095 4.4603
v  -12.4837 12.9159 1.7392
v  -12.5172 12.9343 2.1237
v  -12.4736 13.1449 1.9135
v  -12.4583 13.1131 1.5991
v  -11.0851 12.4493 2.8529
v  -11.0666 13.1269 2.1690
v  -10.7676 13.0954 2.3009
v  -10.7684 12.5029 2.8793
v  -10.5287 12.7438 2.7259
v  -12.1841 13.2668 1.5481
v  -12.2543 13.3260 2.1477
v  -12.2888 12.7919 2.8265
v  -12.2217 12.7576 1.9679
v  -12.2051 12.7797 1.9562
v  -12.1852 13.2427 1.5690
v  -12.3618 13.1872 1.5505
v  -12.3902 13.2463 2.1356
v  -12.4713 12.8545 2.5268
v  -12.4090 12.8202 1.8111
v  -12.3870 12.8391 1.8010
v  -12.3463 13.1676 1.5684
v  -12.4528 12.9224 1.7360
v  -12.4297 13.1020 1.6084
v  -9.7465 12.2992 -9.2850
v  -9.7547 12.2863 -9.2883
v  -10.1648 11.7262 -6.8464
v  -10.1846 11.6952 -6.7158
v  -10.2442 11.6750 -6.5563
v  -10.5998 11.8058 7.1024
v  -11.2761 10.7417 -6.6472
v  -10.8032 11.1506 -6.6082
v  -10.7428 11.1583 -8.7148
v  -11.2106 10.7707 -8.7825
v  -10.0328 12.1267 2.3392
v  -9.9897 12.2041 2.1617
v  -9.9693 12.2660 -1.6699
v  -10.0115 12.1916 -1.6777
v  -10.0289 12.1247 6.3835
v  -9.9860 12.2022 6.0194
v  -9.7652 12.3759 -9.1811
v  -9.7974 12.3068 -9.2857
v  -9.9350 12.1945 6.0201
v  -9.5886 12.9400 4.0295
v  -9.7669 12.5613 3.0786
v  -9.0463 14.0279 1.1456
v  -9.4904 13.1267 -0.2880
v  -8.6847 14.5444 -1.6368
v  -9.2090 13.4361 -5.4788
v  -8.4539 14.8296 -2.9624
v  -9.0958 13.5761 -6.1292
v  -8.2989 14.9305 -5.3514
v  -9.0197 13.6256 -7.3015
v  -8.5756 14.8512 -8.4457
v  -9.1138 13.5857 -8.7789
v  -9.9387 12.1965 2.1624
v  -9.4881 13.1534 4.5653
v  -9.8615 12.2827 5.9388
v  -9.9184 12.2583 -1.6692
v  -8.7960 14.5358 1.9534
v  -9.7142 12.3683 -9.1804
v  -8.3892 15.1689 0.5281
v  -8.0922 15.5360 -1.1780
v  -7.8928 15.6658 -4.2525
v  -7.9059 15.5606 -8.2792
v  -11.0957 10.3507 -6.6825
v  -10.8461 10.7389 -6.6455
v  -10.7806 10.7679 -8.7809
v  -11.0255 10.4000 -8.8452
v  -10.1903 11.6552 -8.6258
v  -10.5228 11.1555 -8.7131
v  -10.5832 11.1478 -6.6065
v  -10.4986 11.1585 -9.5558
v  -10.7545 10.7795 -9.6350
v  -10.9817 11.0971 7.2970
v  -11.2778 10.5475 7.4480
v  -10.9974 10.4197 -9.7102
v  -11.5590 10.0257 7.5913
v  -10.1688 11.6473 -9.4536
v  -11.1247 9.2291 -8.3558
v  -11.6403 8.8674 7.8134
v  -11.1150 9.0275 -8.2757
v  -11.6300 8.6721 7.8012
v  -11.6040 8.1788 7.7701
v  -11.4352 6.9967 7.7319
v  -11.2426 5.8004 7.6080
v  -10.8235 4.8705 7.5399
v  -10.9824 4.4580 7.4992
v  -10.9824 3.9330 7.4604
v  -10.1641 11.6491 -9.4532
v  -10.1624 11.6521 -9.4526
v  -11.0770 9.2626 -9.8530
v  -11.0646 9.0623 -9.8488
# 131 vertices

vn -0.9874 -0.1547 -0.0317
vn -0.9816 -0.1880 -0.0341
vn -0.9978 -0.0584 -0.0322
vn -0.9978 -0.0568 -0.0334
vn -0.9496 -0.3110 -0.0397
vn -0.9511 -0.3062 -0.0392
vn -0.9876 -0.1525 -0.0362
vn -0.9969 -0.0716 -0.0333
vn -0.9936 0.1103 -0.0244
vn -0.9964 0.0810 -0.0259
vn -0.9994 -0.0176 -0.0289
vn -0.9995 -0.0158 -0.0291
vn -0.8497 0.5272 -0.0074
vn -0.6973 0.7168 -0.0068
vn -0.7388 0.6740 -0.0027
vn -0.8295 0.5586 -0.0053
vn -0.5834 0.8121 -0.0049
vn -0.4006 0.9161 -0.0171
vn -0.7016 0.7126 -0.0020
vn -0.6120 0.7907 -0.0119
vn -0.6538 0.7565 -0.0146
vn -0.4419 0.8969 -0.0151
vn -0.2694 0.9628 -0.0211
vn -0.4653 0.8849 -0.0219
vn -0.5193 0.8540 -0.0327
vn 0.2388 0.9318 0.2733
vn 0.3840 0.9216 -0.0569
vn 0.1425 0.9871 -0.0729
vn -0.1667 0.9609 0.2211
vn -0.6178 0.6164 0.4881
vn -0.8869 0.0831 0.4545
vn -0.4616 -0.8871 -0.0001
vn -0.8055 -0.5916 -0.0354
vn 0.1143 -0.7670 -0.6314
vn 0.1943 -0.8497 -0.4901
vn 0.2075 -0.8468 -0.4898
vn 0.2524 -0.8407 -0.4790
vn 0.8509 0.5244 -0.0298
vn 0.9272 0.3743 0.0131
vn 0.3734 0.8549 0.3603
vn -0.0203 0.8971 0.4414
vn -0.8322 -0.2109 0.5128
vn -0.3033 -0.9527 0.0177
vn 0.1896 -0.9281 -0.3204
vn 0.3390 -0.8642 -0.3720
vn 0.8628 0.5055 0.0068
vn 0.2854 0.8671 0.4082
vn -0.9843 -0.1644 -0.0639
vn -0.9881 -0.1457 0.0484
vn -0.8818 0.4699 -0.0409
vn -0.8213 0.5622 -0.0967
vn 0.2382 -0.6802 -0.6933
vn 0.2653 -0.6885 -0.6749
vn 0.2214 -0.6910 -0.6881
vn 0.1941 -0.6853 -0.7019
vn 0.2372 -0.6787 -0.6950
vn -0.1754 0.9789 -0.1047
vn -0.2808 0.9459 0.1627
vn -0.7993 -0.2426 0.5498
vn -0.3156 -0.9488 0.0137
vn 0.3840 -0.5948 -0.7062
vn 0.3191 -0.6292 -0.7087
vn -0.5128 0.8513 -0.1109
vn -0.6752 0.7032 0.2229
vn -0.8930 -0.2387 0.3815
vn -0.6488 -0.7607 -0.0213
vn 0.3433 -0.5710 -0.7458
vn 0.2542 -0.6065 -0.7533
vn 0.0627 -0.5832 -0.8099
vn 0.0688 -0.5823 -0.8100
vn 0.4928 -0.7612 -0.4215
vn 0.2220 -0.6912 -0.6877
vn 0.2216 -0.6923 -0.6868
vn 0.2660 -0.6706 -0.6924
vn 0.2665 -0.6695 -0.6934
vn 0.3059 -0.6317 -0.7123
vn 0.3020 -0.6262 -0.7187
vn 0.1769 -0.5886 -0.7888
vn 0.1679 -0.5812 -0.7962
vn 0.0427 -0.5843 -0.8104
vn 0.0378 -0.5818 -0.8124
vn 0.0397 -0.5882 -0.8077
vn 0.0441 -0.5845 -0.8102
vn 0.2007 -0.6396 -0.7420
vn 0.2082 -0.6353 -0.7437
vn 0.3582 -0.6378 -0.6818
vn 0.3598 -0.6352 -0.6834
vn 0.2595 -0.6561 -0.7087
vn 0.2595 -0.6581 -0.7068
vn 0.2079 -0.6887 -0.6946
vn 0.2076 -0.6897 -0.6937
vn 0.2144 -0.6807 -0.7005
vn 0.2142 -0.6806 -0.7007
vn -0.8389 0.5440 -0.0162
vn -0.8392 0.5436 -0.0162
vn -0.8551 0.5182 -0.0155
vn -0.6553 0.7551 -0.0176
vn -0.6328 0.7740 -0.0239
vn -0.7879 0.6151 -0.0284
vn -0.6504 0.7595 -0.0147
vn -0.3405 0.9402 -0.0063
vn -0.3414 0.9399 -0.0035
vn -0.6371 0.7707 -0.0090
vn -0.8723 0.4889 0.0014
vn -0.8708 0.4917 0.0030
vn -0.8700 0.4930 -0.0061
vn -0.8701 0.4929 -0.0070
vn -0.8727 0.4883 0.0011
vn -0.8950 0.4457 -0.0184
vn -0.8951 0.4455 -0.0184
vn -0.8068 0.5760 0.1318
vn -0.9023 0.4311 -0.0021
vn -0.9029 0.4298 -0.0012
vn -0.8863 0.4628 -0.0146
vn -0.8894 0.4570 -0.0107
vn -0.8639 0.5029 -0.0281
vn -0.8656 0.5000 -0.0263
vn -0.8518 0.5227 -0.0343
vn -0.8603 0.5096 -0.0111
vn -0.8870 0.4616 0.0134
vn -0.8541 0.5171 0.0557
vn -0.9109 0.4099 0.0469
vn -0.9027 0.4303 -0.0010
vn -0.9016 0.4325 0.0022
vn -0.5468 0.7664 0.3372
vn -0.8864 0.4626 -0.0152
vn -0.8888 0.4581 -0.0131
vn -0.8846 0.4663 0.0088
vn -0.8681 0.4956 -0.0275
vn -0.8510 0.5239 -0.0349
vn -0.8563 0.5157 -0.0286
vn -0.7558 0.6536 0.0392
vn -0.1482 -0.9890 -0.0004
vn -0.1479 -0.9889 -0.0168
vn -0.1479 -0.9888 -0.0191
vn 0.1479 0.9888 0.0185
vn 0.1479 0.9889 0.0168
vn 0.1482 0.9890 0.0004
vn -0.9494 0.3131 -0.0253
vn -0.8406 0.5414 -0.0196
vn -0.8310 0.5560 -0.0177
vn -0.9454 0.3252 -0.0238
vn -0.6268 0.7789 -0.0226
vn -0.8299 0.5574 -0.0229
vn -0.8398 0.5423 -0.0250
vn -0.8274 0.5612 -0.0202
vn -0.8278 0.5608 -0.0163
vn -0.8822 0.4704 -0.0219
vn -0.8819 0.4710 -0.0191
vn -0.9507 0.3091 -0.0238
vn -0.9703 0.2405 -0.0260
vn -0.6408 0.7674 -0.0222
vn -0.0065 -0.9999 -0.0138
vn 0.0061 0.1662 -0.9861
vn 0.0050 0.1663 -0.9861
vn 0.0082 0.1660 -0.9861
vn 0.0097 0.1659 -0.9861
vn 0.0127 0.9999 0.0040
vn -0.0068 -0.0881 0.9961
vn -0.0088 -0.0848 0.9964
vn -0.0056 -0.0901 0.9959
vn -0.0045 -0.0920 0.9958
vn -0.9995 0.0051 -0.0318
vn -0.9995 0.0035 -0.0321
vn -0.9975 -0.0616 -0.0334
vn -0.9982 -0.0506 -0.0333
vn -0.9952 -0.0928 -0.0314
vn -0.9879 -0.1513 -0.0348
vn -0.9601 -0.2765 -0.0412
vn -0.9986 -0.0409 -0.0340
vn -0.9810 0.1925 -0.0262
vn -0.9996 0.0022 -0.0292
vn -0.6312 0.7754 -0.0178
vn -0.8572 0.5147 -0.0154
vn -0.9995 0.0035 -0.0319
vn -0.9975 -0.0626 -0.0333
# 176 vertex normals

vt 0.0000 1.0000 0.0000
vt 0.0000 0.1772 0.0000
vt 0.8225 0.7258 0.0000
vt 0.5012 0.8329 0.0000
vt 0.2460 0.9180 0.0000
vt 0.6451 0.7850 0.0000
# 6 texture coords

g Object004
usemtl Material__203
s 1
f 1/1/1 2/1/2 3/1/3 
f 3/1/3 4/1/4 1/1/1 
f 5/1/5 6/1/6 2/1/2 
f 2/1/2 1/1/1 5/1/5 
f 7/1/7 8/1/8 6/1/6 
f 6/1/6 5/1/5 7/1/7 
f 9/1/9 10/1/10 8/1/8 
f 8/1/8 7/1/7 9/1/9 
f 11/1/11 12/1/12 10/1/10 
f 10/1/10 9/1/9 11/1/11 
f 13/1/13 14/1/14 15/1/15 
f 15/1/15 16/1/16 13/1/13 
f 17/1/17 18/1/18 19/2/19 
f 20/1/20 17/1/17 19/2/19 
f 14/1/14 20/1/20 19/2/19 
f 14/1/14 19/2/19 15/1/15 
f 14/1/14 13/1/13 21/1/21 
f 21/1/21 22/1/22 14/1/14 
f 20/1/20 14/1/14 22/1/22 
f 22/1/22 23/1/23 20/1/20 
f 18/1/18 17/1/17 24/1/24 
f 24/1/24 25/1/25 18/1/18 
s 16
f 26/1/26 27/1/27 28/1/28 
f 28/1/28 29/1/29 26/1/26 
f 24/1/30 30/1/31 31/1/32 
f 31/1/32 23/1/33 24/1/30 
s 32
f 23/1/34 31/1/35 32/1/36 
f 23/1/34 32/1/36 33/1/37 
f 23/1/34 33/1/37 20/1/34 
s 16
f 20/1/38 33/1/39 34/1/40 
f 34/1/40 17/1/41 20/1/38 
f 17/1/41 34/1/40 30/1/31 
f 30/1/31 24/1/30 17/1/41 
f 31/1/32 30/1/31 35/1/42 
f 35/1/42 36/1/43 31/1/32 
s 32
f 31/1/35 36/1/44 37/1/45 
f 37/1/45 32/1/36 31/1/35 
s 16
f 33/1/39 38/1/46 39/1/47 
f 39/1/47 34/1/40 33/1/39 
f 30/1/31 34/1/40 39/1/47 
f 39/1/47 35/1/42 30/1/31 
f 40/1/48 41/1/49 42/1/50 
f 42/1/50 43/1/51 40/1/48 
s 2
f 44/1/52 45/1/53 46/1/54 
f 47/1/55 44/1/52 46/1/54 
f 48/1/56 47/1/55 46/1/54 
s 16
f 26/1/26 39/1/47 38/1/46 
f 38/1/46 27/1/27 26/1/26 
f 35/1/42 39/1/47 26/1/26 
f 26/1/26 29/1/29 35/1/42 
f 28/1/28 49/1/57 50/1/58 
f 50/1/58 29/1/29 28/1/28 
f 29/1/29 50/1/58 51/1/59 
f 51/1/59 35/1/42 29/1/29 
f 35/1/42 51/1/59 52/1/60 
f 52/1/60 36/1/43 35/1/42 
s 2
f 44/1/52 53/1/61 54/1/62 
f 54/1/62 45/1/53 44/1/52 
s 16
f 49/1/57 55/1/63 56/1/64 
f 56/1/64 50/1/58 49/1/57 
f 50/1/58 56/1/64 57/1/65 
f 57/1/65 51/1/59 50/1/58 
f 51/1/59 57/1/65 58/1/66 
f 58/1/66 52/1/60 51/1/59 
s 2
f 53/1/61 59/1/67 60/1/68 
f 60/1/68 54/1/62 53/1/61 
s 16
f 55/1/63 43/1/51 42/1/50 
f 42/1/50 56/1/64 55/1/63 
f 56/1/64 42/1/50 41/1/49 
f 41/1/49 57/1/65 56/1/64 
f 57/1/65 41/1/49 40/1/48 
f 40/1/48 58/1/66 57/1/65 
s 2
f 59/1/67 61/1/69 62/1/70 
f 62/1/70 60/1/68 59/1/67 
s 32
f 33/1/37 32/1/36 37/1/45 
f 37/1/45 38/1/71 33/1/37 
s 1
f 27/1/72 46/1/73 45/1/74 
f 45/1/74 28/1/75 27/1/72 
f 28/1/75 45/1/74 54/1/76 
f 54/1/76 49/1/77 28/1/75 
f 49/1/77 54/1/76 60/1/78 
f 60/1/78 55/1/79 49/1/77 
f 55/1/79 60/1/78 62/1/80 
f 62/1/80 43/1/81 55/1/79 
f 43/1/81 62/1/80 61/1/82 
f 61/1/82 40/1/83 43/1/81 
f 40/1/83 61/1/82 59/1/84 
f 59/1/84 58/1/85 40/1/83 
f 58/1/85 59/1/84 53/1/86 
f 53/1/86 52/1/87 58/1/85 
f 52/1/87 53/1/86 44/1/88 
f 44/1/88 36/1/89 52/1/87 
f 36/1/89 44/1/88 47/1/90 
f 47/1/90 37/1/91 36/1/89 
f 37/1/91 47/1/90 48/1/92 
f 48/1/92 38/1/93 37/1/91 
f 38/1/93 48/1/92 46/1/73 
f 46/1/73 27/1/72 38/1/93 
f 63/1/94 64/1/95 65/1/96 
f 63/1/94 65/1/96 13/1/13 
f 63/1/94 13/1/13 16/1/16 
f 13/1/13 65/1/96 66/1/97 
f 66/1/97 21/1/21 13/1/13 
f 66/1/97 67/1/98 68/1/99 
f 68/1/99 25/1/25 24/1/24 
f 23/1/23 22/1/22 21/1/21 
f 24/1/24 23/1/23 21/1/21 
f 68/1/99 24/1/24 21/1/21 
f 66/1/97 68/1/99 21/1/21 
s 8
f 69/1/100 70/1/101 71/1/102 
f 71/1/102 72/1/103 69/1/100 
s 64
f 73/1/104 74/1/105 75/1/106 
f 75/1/106 76/1/107 73/1/104 
f 77/2/108 78/2/108 74/1/105 
f 74/1/105 73/1/104 77/2/108 
f 76/1/107 75/1/106 79/1/109 
f 79/1/109 80/1/110 76/1/107 
usemtl Material__571
s 1
f 81/3/111 82/4/112 83/5/113 
f 83/5/113 82/4/112 84/1/114 
f 84/1/114 85/1/115 83/5/113 
f 85/1/115 84/1/114 86/1/116 
f 86/1/116 87/1/117 85/1/115 
f 87/1/117 86/1/116 88/1/118 
f 88/1/118 89/1/118 87/1/117 
f 89/1/118 88/1/118 90/1/119 
f 90/1/119 91/1/120 89/1/118 
f 91/1/120 90/1/119 92/1/121 
f 92/1/121 93/1/122 91/1/120 
f 81/3/111 83/5/113 94/1/123 
f 95/6/124 82/4/112 81/3/111 
f 81/3/111 96/1/125 95/6/124 
f 94/1/123 83/5/113 85/1/115 
f 85/1/115 97/1/126 94/1/123 
f 98/1/127 84/1/114 82/4/112 
f 82/4/112 95/6/124 98/1/127 
f 97/1/126 85/1/115 87/1/117 
f 87/1/117 99/1/128 97/1/126 
f 100/1/129 86/1/116 84/1/114 
f 84/1/114 98/1/127 100/1/129 
f 87/1/117 89/1/118 99/1/128 
f 101/1/130 88/1/118 86/1/116 
f 86/1/116 100/1/129 101/1/130 
f 89/1/118 91/1/120 99/1/128 
f 102/1/131 90/1/119 88/1/118 
f 88/1/118 101/1/130 102/1/131 
f 91/1/120 93/1/122 99/1/128 
f 103/1/132 92/1/121 90/1/119 
f 90/1/119 102/1/131 103/1/132 
usemtl Material__203
s off
f 19/2/133 77/2/133 73/1/133 
f 73/1/133 15/1/133 19/2/133 
f 15/1/134 73/1/134 76/1/134 
f 76/1/134 16/1/134 15/1/134 
s 256
f 16/1/135 76/1/135 80/1/135 
f 80/1/135 63/1/135 16/1/135 
s off
f 99/1/136 79/1/136 75/1/136 
f 75/1/136 97/1/136 99/1/136 
f 97/1/137 75/1/137 74/1/137 
f 74/1/137 94/1/137 97/1/137 
f 94/1/138 74/1/138 78/2/138 
f 78/2/138 81/2/138 94/1/138 
s 1
f 104/1/139 105/1/140 106/1/141 
f 106/1/141 107/1/142 104/1/139 
f 108/1/143 109/1/144 110/1/145 
f 110/1/145 67/1/98 108/1/143 
f 106/1/141 109/1/144 111/1/146 
f 111/1/146 112/1/147 106/1/141 
f 113/1/148 110/1/145 105/1/140 
f 105/1/140 114/1/149 113/1/148 
f 107/1/142 106/1/141 112/1/147 
f 112/1/147 115/1/150 107/1/142 
f 114/1/149 105/1/140 104/1/139 
f 104/1/139 116/1/151 114/1/149 
f 68/1/99 67/1/98 110/1/145 
f 110/1/145 113/1/148 68/1/99 
f 109/1/144 108/1/143 117/1/152 
f 117/1/152 111/1/146 109/1/144 
s off
f 105/1/153 69/1/153 72/1/153 
f 72/1/153 106/1/153 105/1/153 
s 2
f 106/1/154 72/1/155 71/1/156 
f 71/1/156 109/1/157 106/1/154 
s 8
f 109/1/158 71/1/102 70/1/101 
f 70/1/101 110/1/158 109/1/158 
s 2
f 110/1/159 70/1/160 69/1/161 
f 69/1/161 105/1/162 110/1/159 
s 1
f 107/1/142 118/1/163 119/1/164 
f 119/1/164 116/1/151 104/1/139 
f 107/1/142 119/1/164 104/1/139 
f 119/1/164 118/1/163 120/1/165 
f 120/1/165 121/1/166 119/1/164 
f 121/1/166 120/1/165 3/1/3 
f 3/1/3 122/1/167 121/1/166 
f 122/1/167 3/1/3 2/1/2 
f 2/1/2 123/1/168 122/1/167 
f 123/1/168 2/1/2 6/1/6 
f 6/1/6 124/1/169 123/1/168 
f 124/1/169 6/1/6 8/1/8 
f 8/1/8 125/1/170 124/1/169 
f 125/1/170 8/1/8 10/1/10 
f 10/1/10 126/1/171 125/1/170 
f 126/1/171 10/1/10 12/1/12 
f 12/1/12 127/1/172 126/1/171 
f 67/1/98 66/1/97 128/1/173 
f 128/1/173 117/1/152 108/1/143 
f 67/1/98 128/1/173 108/1/143 
f 128/1/173 66/1/97 65/1/96 
f 65/1/96 129/1/174 128/1/173 
f 65/1/96 64/1/95 129/1/174 
f 107/1/142 115/1/150 130/1/175 
f 130/1/175 118/1/163 107/1/142 
f 118/1/163 130/1/175 131/1/176 
f 131/1/176 120/1/165 118/1/163 
f 4/1/4 3/1/3 120/1/165 
f 120/1/165 131/1/176 4/1/4 
# 213 faces

