# 3ds Max Wavefront OBJ Exporter v0.97b - (c)2007 guruware
# File Created: 26.12.2018 12:41:14

newmtl Material__1695
	Ns 10.0000
	Ni 1.5000
	d 1.0000
	Tr 0.0000
	Tf 1.0000 1.0000 1.0000 
	illum 2
	Ka 0.5880 0.5880 0.5880
	Kd 0.5880 0.5880 0.5880
	Ks 0.0000 0.0000 0.0000
	Ke 0.0000 0.0000 0.0000
	map_Ka C:\Users\Rakon\Downloads\G3D textures\co_pctxssr_pdptrd.jpg
	map_Kd C:\Users\Rakon\Downloads\G3D textures\co_pctxssr_pdptrd.jpg
	map_Ks C:\Users\Rakon\Downloads\G3D textures\co_pctxssr_pdptrd.jpg

newmtl Material__1741
	Ns 60.0000
	Ni 1.5000
	d 1.0000
	Tr 0.0000
	Tf 1.0000 1.0000 1.0000 
	illum 2
	Ka 0.5880 0.5880 0.5880
	Kd 0.5880 0.5880 0.5880
	Ks 0.3960 0.3960 0.3960
	Ke 0.0000 0.0000 0.0000
	map_Ka C:\Users\Rakon\Downloads\G3D textures\Red.png
	map_Kd C:\Users\Rakon\Downloads\G3D textures\Red.png

newmtl Material__1539
	Ns 10.0000
	Ni 1.5000
	d 1.0000
	Tr 0.0000
	Tf 1.0000 1.0000 1.0000 
	illum 2
	Ka 0.5880 0.5880 0.5880
	Kd 0.5880 0.5880 0.5880
	Ks 0.0000 0.0000 0.0000
	Ke 0.0000 0.0000 0.0000
	map_Ka C:\Users\Rakon\Downloads\G3D textures\Black.png
	map_Kd C:\Users\Rakon\Downloads\G3D textures\Black.png

newmtl Material__1682
	Ns 32.0000
	Ni 1.5000
	d 1.0000
	Tr 0.0000
	Tf 1.0000 1.0000 1.0000 
	illum 2
	Ka 0.5880 0.5880 0.5880
	Kd 0.5880 0.5880 0.5880
	Ks 1.0170 1.0170 1.0170
	Ke 0.0000 0.0000 0.0000
	map_Ka C:\Users\Rakon\Downloads\G3D textures\WhiteishGrey.png
	map_Kd C:\Users\Rakon\Downloads\G3D textures\WhiteishGrey.png
