# 3ds Max Wavefront OBJ Exporter v0.97b - (c)2007 guruware
# File Created: 26.12.2018 13:11:32

newmtl Material__1514
	Ns 40.0000
	Ni 1.5000
	d 1.0000
	Tr 0.0000
	Tf 1.0000 1.0000 1.0000 
	illum 2
	Ka 0.5880 0.5880 0.5880
	Kd 0.5880 0.5880 0.5880
	Ks 0.7020 0.7020 0.7020
	Ke 0.0000 0.0000 0.0000
	map_Ka C:\Users\Rakon\Downloads\G3D textures\Orange.png
	map_Kd C:\Users\Rakon\Downloads\G3D textures\Orange.png

newmtl Material__1502
	Ns 10.0000
	Ni 1.5000
	d 0.4300
	Tr 0.5700
	Tf 0.4300 0.4300 0.4300 
	illum 2
	Ka 0.5880 0.5880 0.5880
	Kd 0.5880 0.5880 0.5880
	Ks 0.0000 0.0000 0.0000
	Ke 0.0000 0.0000 0.0000
	map_Ka C:\Users\Rakon\Downloads\G3D textures\Blue.png
	map_Kd C:\Users\Rakon\Downloads\G3D textures\Blue.png

newmtl Material__1526
	Ns 10.0000
	Ni 1.5000
	d 1.0000
	Tr 0.0000
	Tf 1.0000 1.0000 1.0000 
	illum 2
	Ka 0.5880 0.5880 0.5880
	Kd 0.5880 0.5880 0.5880
	Ks 1.6290 1.6290 1.6290
	Ke 0.0000 0.0000 0.0000
	map_Ka C:\Users\Rakon\Downloads\G3D textures\chrome-texture-9442.jpg
	map_Kd C:\Users\Rakon\Downloads\G3D textures\chrome-texture-9442.jpg

newmtl Material__1539
	Ns 10.0000
	Ni 1.5000
	d 1.0000
	Tr 0.0000
	Tf 1.0000 1.0000 1.0000 
	illum 2
	Ka 0.5880 0.5880 0.5880
	Kd 0.5880 0.5880 0.5880
	Ks 0.0000 0.0000 0.0000
	Ke 0.0000 0.0000 0.0000
	map_Ka C:\Users\Rakon\Downloads\G3D textures\Black.png
	map_Kd C:\Users\Rakon\Downloads\G3D textures\Black.png

newmtl Material__1552
	Ns 10.0000
	Ni 1.5000
	d 1.0000
	Tr 0.0000
	Tf 1.0000 1.0000 1.0000 
	illum 2
	Ka 0.5880 0.5880 0.5880
	Kd 0.5880 0.5880 0.5880
	Ks 0.2340 0.2340 0.2340
	Ke 0.0000 0.0000 0.0000
	map_Ka C:\Users\Rakon\Downloads\G3D textures\metal-grid-texture.jpg
	map_Kd C:\Users\Rakon\Downloads\G3D textures\metal-grid-texture.jpg
	map_Ks C:\Users\Rakon\Downloads\G3D textures\metal-grid-texture.jpg

newmtl Material__1553
	Ns 10.0000
	Ni 1.5000
	d 1.0000
	Tr 0.0000
	Tf 1.0000 1.0000 1.0000 
	illum 2
	Ka 0.5880 0.5880 0.5880
	Kd 0.5880 0.5880 0.5880
	Ks 0.0000 0.0000 0.0000
	Ke 0.0000 0.0000 0.0000
	map_Ka C:\Users\Rakon\Downloads\G3D textures\stock-photo-textured-background-close-up-of-old-car-headlight-or-headlamp-of-the-vehicle-with-abstract-effect-693112918.jpg
	map_Kd C:\Users\Rakon\Downloads\G3D textures\stock-photo-textured-background-close-up-of-old-car-headlight-or-headlamp-of-the-vehicle-with-abstract-effect-693112918.jpg

newmtl Material__1585
	Ns 10.0000
	Ni 1.5000
	d 1.0000
	Tr 0.0000
	Tf 1.0000 1.0000 1.0000 
	illum 2
	Ka 0.5880 0.5880 0.5880
	Kd 0.5880 0.5880 0.5880
	Ks 0.0000 0.0000 0.0000
	Ke 0.0000 0.0000 0.0000
	map_Ka C:\Users\Rakon\Downloads\G3D textures\1a19f0858d06a96333fc43ac82d7a048.png
	map_Kd C:\Users\Rakon\Downloads\G3D textures\1a19f0858d06a96333fc43ac82d7a048.png

newmtl Material__1603
	Ns 50.0000
	Ni 1.5000
	d 1.0000
	Tr 0.0000
	Tf 1.0000 1.0000 1.0000 
	illum 2
	Ka 0.5880 0.5880 0.5880
	Kd 0.5880 0.5880 0.5880
	Ks 1.4040 1.4040 1.4040
	Ke 0.0000 0.0000 0.0000
	map_Ka C:\Users\Rakon\Downloads\G3D textures\fibres-texture-design_1100-99.jpg
	map_Kd C:\Users\Rakon\Downloads\G3D textures\fibres-texture-design_1100-99.jpg
	map_Ks C:\Users\Rakon\Downloads\G3D textures\fibres-texture-design_1100-99.jpg

newmtl Material__1764
	Ns 10.0000
	Ni 1.5000
	d 1.0000
	Tr 0.0000
	Tf 1.0000 1.0000 1.0000 
	illum 2
	Ka 0.5880 0.5880 0.5880
	Kd 0.5880 0.5880 0.5880
	Ks 0.0000 0.0000 0.0000
	Ke 0.0000 0.0000 0.0000
	map_Ka C:\Users\Rakon\Downloads\G3D textures\800px_COLOURBOX5836954.jpg
	map_Kd C:\Users\Rakon\Downloads\G3D textures\800px_COLOURBOX5836954.jpg
