# 3ds Max Wavefront OBJ Exporter v0.97b - (c)2007 guruware
# File Created: 26.12.2018 12:39:45

mtllib ClassicCamaroTrunkHood.mtl

#
# object Object006
#

v  -5.8119 2.0846 6.0377
v  -5.8119 2.1137 6.1644
v  -5.6698 2.1445 6.1466
v  -5.6698 2.0838 5.9459
v  -5.7866 1.9219 5.3246
v  -5.8119 2.0243 5.7744
v  -5.6698 2.0243 5.7566
v  -5.6445 1.9219 5.3068
v  -5.7319 1.7944 4.7940
v  -5.5898 1.7944 4.7762
v  -5.6564 1.7501 4.6000
v  -5.5143 1.7501 4.5823
v  -4.1393 2.1754 6.1466
v  -4.1393 2.0838 5.9459
v  -5.5482 2.0838 5.9459
v  -5.5471 2.1754 6.1466
v  -4.1393 2.0243 5.7566
v  -4.1393 1.9219 5.3068
v  -4.1393 1.7944 4.7762
v  -4.1393 1.7501 4.5823
v  -5.4450 1.7941 4.4770
v  -5.5871 1.7941 4.4948
v  -4.1393 1.7941 4.4770
v  -5.3691 1.9220 4.3696
v  -5.4974 1.9220 4.3874
v  -4.1393 1.8685 4.4145
v  -4.1393 1.9220 4.3696
v  -5.3828 1.6998 4.3418
v  -5.5203 1.6998 4.3556
v  -4.1393 1.8337 4.3565
v  -4.1393 1.6998 4.3367
v  -5.5685 1.7161 4.4700
v  -2.4667 2.0846 6.0377
v  -2.6088 2.0838 5.9459
v  -2.6088 2.1445 6.1466
v  -2.4667 2.1137 6.1644
v  -2.4920 1.9219 5.3246
v  -2.6341 1.9219 5.3068
v  -2.6088 2.0243 5.7566
v  -2.4667 2.0243 5.7744
v  -2.5467 1.7944 4.7940
v  -2.6887 1.7944 4.7762
v  -2.6222 1.7501 4.6000
v  -2.7642 1.7501 4.5823
v  -2.7315 2.1754 6.1466
v  -2.7304 2.0838 5.9459
v  -2.6915 1.7941 4.4948
v  -2.8336 1.7941 4.4770
v  -2.7812 1.9220 4.3874
v  -2.9095 1.9220 4.3696
v  -2.7583 1.6998 4.3556
v  -2.8958 1.6998 4.3418
v  -2.7101 1.7161 4.4700
# 53 vertices

vn -0.1807 0.9524 -0.2456
vn -0.2328 0.9480 -0.2172
vn -0.2195 0.9382 -0.2676
vn -0.0846 0.9506 -0.2988
vn -0.0287 0.9730 -0.2291
vn -0.0550 0.9671 -0.2486
vn -0.0165 0.9655 -0.2599
vn -0.0147 0.9733 -0.2292
vn -0.0295 0.9715 -0.2353
vn -0.0159 0.9726 -0.2321
vn -0.0292 0.9720 -0.2333
vn -0.0105 0.9740 -0.2265
vn -0.0000 0.9096 -0.4154
vn 0.0000 0.9336 -0.3583
vn -0.0000 0.9336 -0.3583
vn -0.0757 0.9237 -0.3756
vn 0.0000 0.9653 -0.2611
vn 0.0000 0.9737 -0.2278
vn 0.0000 0.9736 -0.2281
vn -0.0000 0.9749 -0.2226
vn 0.0518 0.9089 0.4137
vn 0.0355 0.9137 0.4049
vn 0.0417 0.7889 0.6131
vn 0.0697 0.8352 0.5455
vn -0.0000 0.9228 0.3853
vn -0.0000 0.8057 0.5923
vn 0.0366 0.6284 0.7770
vn 0.1107 0.5924 0.7980
vn -0.0000 -0.0000 1.0000
vn -0.0000 0.6431 0.7658
vn -0.1235 0.1382 -0.9827
vn -0.0660 0.1281 -0.9896
vn -0.0580 0.1363 -0.9890
vn -0.0992 0.1509 -0.9836
vn 0.0001 0.1439 -0.9896
vn -0.0001 0.1464 -0.9892
vn -0.8763 0.0807 -0.4750
vn -0.8974 -0.0764 -0.4346
vn -0.8589 0.0305 -0.5112
vn -0.8431 0.1605 -0.5132
vn -0.8306 -0.0218 -0.5564
vn 0.1807 0.9524 -0.2456
vn 0.0846 0.9506 -0.2988
vn 0.2195 0.9382 -0.2676
vn 0.2328 0.9480 -0.2172
vn 0.0287 0.9730 -0.2291
vn 0.0147 0.9733 -0.2292
vn 0.0165 0.9655 -0.2599
vn 0.0550 0.9671 -0.2486
vn 0.0295 0.9715 -0.2353
vn 0.0159 0.9726 -0.2321
vn 0.0292 0.9720 -0.2333
vn 0.0105 0.9740 -0.2265
vn 0.0757 0.9237 -0.3756
vn -0.0518 0.9089 0.4137
vn -0.0697 0.8352 0.5455
vn -0.0417 0.7889 0.6131
vn -0.0355 0.9137 0.4049
vn -0.1107 0.5924 0.7980
vn -0.0366 0.6284 0.7770
vn 0.1235 0.1382 -0.9827
vn 0.0992 0.1509 -0.9836
vn 0.0580 0.1363 -0.9890
vn 0.0660 0.1281 -0.9896
vn 0.8763 0.0807 -0.4750
vn 0.8431 0.1605 -0.5132
vn 0.8589 0.0305 -0.5112
vn 0.8974 -0.0764 -0.4346
vn 0.8306 -0.0218 -0.5564
# 69 vertex normals

vt 4.7646 0.3071 1.0000
# 1 texture coords

g Object006
usemtl Material__1514
s 1
f 1/1/1 2/1/2 3/1/3 
f 3/1/3 4/1/4 1/1/1 
f 5/1/5 6/1/6 7/1/7 
f 7/1/7 8/1/8 5/1/5 
f 9/1/9 5/1/5 8/1/8 
f 8/1/8 10/1/10 9/1/9 
f 11/1/11 9/1/9 10/1/10 
f 10/1/10 12/1/12 11/1/11 
f 4/1/4 7/1/7 6/1/6 
f 6/1/6 1/1/1 4/1/4 
f 13/1/13 14/1/14 15/1/15 
f 15/1/15 16/1/16 13/1/13 
f 8/1/8 7/1/7 17/1/17 
f 17/1/17 18/1/18 8/1/8 
f 10/1/10 8/1/8 18/1/18 
f 18/1/18 19/1/19 10/1/10 
f 12/1/12 10/1/10 19/1/19 
f 19/1/19 20/1/20 12/1/12 
f 7/1/7 4/1/4 15/1/15 
f 7/1/7 15/1/15 14/1/14 
f 7/1/7 14/1/14 17/1/17 
f 4/1/4 3/1/3 16/1/16 
f 16/1/16 15/1/15 4/1/4 
usemtl Material__1603
s 16
f 11/1/21 12/1/22 21/1/23 
f 21/1/23 22/1/24 11/1/21 
f 20/1/25 23/1/26 21/1/23 
f 21/1/23 12/1/22 20/1/25 
f 22/1/24 21/1/23 24/1/27 
f 24/1/27 25/1/28 22/1/24 
f 23/1/26 26/1/29 27/1/30 
f 21/1/23 23/1/26 27/1/30 
f 21/1/23 27/1/30 24/1/27 
s 4
f 25/1/31 24/1/32 28/1/33 
f 28/1/33 29/1/34 25/1/31 
f 27/1/35 30/1/29 31/1/36 
f 27/1/35 31/1/36 28/1/33 
f 24/1/32 27/1/35 28/1/33 
s 8
f 29/1/37 32/1/38 22/1/39 
f 22/1/39 25/1/40 29/1/37 
f 22/1/39 32/1/38 11/1/41 
usemtl Material__1514
s 1
f 33/1/42 34/1/43 35/1/44 
f 35/1/44 36/1/45 33/1/42 
f 37/1/46 38/1/47 39/1/48 
f 39/1/48 40/1/49 37/1/46 
f 41/1/50 42/1/51 38/1/47 
f 38/1/47 37/1/46 41/1/50 
f 43/1/52 44/1/53 42/1/51 
f 42/1/51 41/1/50 43/1/52 
f 34/1/43 33/1/42 40/1/49 
f 40/1/49 39/1/48 34/1/43 
f 13/1/13 45/1/54 46/1/14 
f 46/1/14 14/1/14 13/1/13 
f 38/1/47 18/1/18 17/1/17 
f 17/1/17 39/1/48 38/1/47 
f 42/1/51 19/1/19 18/1/18 
f 18/1/18 38/1/47 42/1/51 
f 44/1/53 20/1/20 19/1/19 
f 19/1/19 42/1/51 44/1/53 
f 39/1/48 17/1/17 14/1/14 
f 39/1/48 14/1/14 46/1/14 
f 39/1/48 46/1/14 34/1/43 
f 34/1/43 46/1/14 45/1/54 
f 45/1/54 35/1/44 34/1/43 
usemtl Material__1603
s 16
f 43/1/55 47/1/56 48/1/57 
f 48/1/57 44/1/58 43/1/55 
f 20/1/25 44/1/58 48/1/57 
f 48/1/57 23/1/26 20/1/25 
f 47/1/56 49/1/59 50/1/60 
f 50/1/60 48/1/57 47/1/56 
f 48/1/57 50/1/60 27/1/30 
f 27/1/30 26/1/29 23/1/26 
f 48/1/57 27/1/30 23/1/26 
s 4
f 49/1/61 51/1/62 52/1/63 
f 52/1/63 50/1/64 49/1/61 
f 31/1/36 30/1/29 27/1/35 
f 52/1/63 31/1/36 27/1/35 
f 50/1/64 52/1/63 27/1/35 
s 8
f 51/1/65 49/1/66 47/1/67 
f 47/1/67 53/1/68 51/1/65 
f 47/1/67 43/1/69 53/1/68 
# 80 faces

