# 3ds Max Wavefront OBJ Exporter v0.97b - (c)2007 guruware
# File Created: 25.12.2018 11:50:03

mtllib LamboTrunkHood.mtl

#
# object Object005
#

v  2.5448 2.2713 4.3677
v  2.5868 2.3986 3.8556
v  1.9300 2.3531 4.2766
v  2.0545 2.2345 4.5870
v  2.5870 2.4418 3.6845
v  2.3336 2.4694 3.3276
v  1.6700 2.4457 3.9821
v  1.8401 2.3981 4.1287
v  2.4786 2.1113 4.7495
v  2.0891 2.0658 4.9220
v  1.8244 1.7045 5.5864
v  2.0455 1.9895 5.0552
v  1.4216 1.9482 5.2767
v  1.5078 1.7045 5.6781
v  1.6859 1.5347 5.8956
v  1.5519 1.5343 5.9285
v  1.3947 2.0162 5.1635
v  1.2999 2.2413 4.6602
v  1.3416 2.1494 4.8998
v  1.2127 2.3790 4.2159
v  1.2593 2.3123 4.4521
v  1.3949 1.9420 5.2765
v  1.4948 1.7051 5.6789
v  1.3661 2.0080 5.1632
v  1.2522 2.2246 4.6597
v  1.3020 2.1367 4.8992
v  1.1470 2.3547 4.2370
v  1.2045 2.2920 4.4518
v  0.9671 1.9420 5.3455
v  1.0670 1.7051 5.7479
v  1.1223 1.7051 5.7390
v  1.2825 1.7051 5.7131
v  1.0938 1.6145 5.8891
v  1.1141 1.5462 5.9957
v  0.9383 2.0080 5.2322
v  0.8244 2.2246 4.7287
v  0.8742 2.1367 4.9682
v  0.7192 2.3547 4.3060
v  0.7766 2.2920 4.5208
v  0.0028 1.9845 5.3783
v  0.0028 1.7731 5.7808
v  0.5569 1.5233 6.1441
v  0.9762 1.5227 6.0611
v  0.0028 2.0370 5.2650
v  0.0028 2.2382 4.7614
v  0.0028 2.1546 5.0010
v  0.0028 2.3682 4.3386
v  0.0028 2.3055 4.5535
v  1.1211 1.5225 6.0325
v  0.0028 1.5241 6.2537
v  -2.5393 2.2713 4.3677
v  -2.0490 2.2345 4.5870
v  -1.9245 2.3531 4.2766
v  -2.5812 2.3986 3.8556
v  -2.5814 2.4418 3.6845
v  -1.8346 2.3981 4.1287
v  -1.6645 2.4457 3.9821
v  -2.3280 2.4694 3.3276
v  -2.4730 2.1113 4.7495
v  -2.0835 2.0658 4.9220
v  -1.8189 1.7045 5.5864
v  -1.5022 1.7045 5.6781
v  -1.4161 1.9482 5.2767
v  -2.0400 1.9895 5.0552
v  -1.6804 1.5347 5.8956
v  -1.5464 1.5343 5.9285
v  -1.3892 2.0162 5.1635
v  -1.3360 2.1494 4.8998
v  -1.2944 2.2413 4.6602
v  -1.2537 2.3123 4.4521
v  -1.2072 2.3790 4.2159
v  -1.4893 1.7051 5.6789
v  -1.3894 1.9420 5.2765
v  -1.3606 2.0080 5.1632
v  -1.2965 2.1367 4.8992
v  -1.2467 2.2246 4.6597
v  -1.1990 2.2920 4.4518
v  -1.1415 2.3547 4.2370
v  -1.1168 1.7051 5.7390
v  -1.0615 1.7051 5.7479
v  -0.9616 1.9420 5.3455
v  -1.2770 1.7051 5.7131
v  -1.1086 1.5462 5.9957
v  -1.0883 1.6145 5.8891
v  -0.9328 2.0080 5.2322
v  -0.8687 2.1367 4.9682
v  -0.8188 2.2246 4.7287
v  -0.7711 2.2920 4.5208
v  -0.7137 2.3547 4.3060
v  -0.9707 1.5227 6.0611
v  -0.5513 1.5233 6.1441
v  -1.1156 1.5225 6.0325
# 92 vertices

vn 0.0952 0.9447 0.3138
vn 0.0895 0.9654 0.2448
vn 0.0584 0.9549 0.2910
vn 0.0766 0.9202 0.3838
vn 0.0554 0.9870 0.1511
vn 0.0238 0.9979 0.0602
vn 0.0335 0.9694 0.2434
vn 0.0512 0.9651 0.2566
vn 0.1027 0.9034 0.4164
vn 0.0965 0.8824 0.4604
vn 0.1389 0.8496 0.5089
vn 0.1221 0.8474 0.5167
vn -0.0366 0.8512 0.5236
vn 0.1047 0.8477 0.5201
vn 0.1404 0.8329 0.5353
vn 0.1139 0.8336 0.5405
vn -0.0718 0.8652 0.4962
vn -0.1387 0.9222 0.3610
vn -0.1089 0.8993 0.4235
vn -0.0980 0.9516 0.2912
vn -0.1517 0.9324 0.3281
vn -0.0583 0.8540 0.5171
vn 0.0761 0.8503 0.5207
vn -0.0846 0.8691 0.4874
vn -0.1334 0.9271 0.3503
vn -0.1108 0.9052 0.4103
vn -0.1080 0.9495 0.2947
vn -0.1447 0.9347 0.3247
vn 0.0703 0.8694 0.4890
vn 0.0820 0.8590 0.5053
vn 0.0821 0.8569 0.5088
vn 0.0866 0.8537 0.5135
vn 0.0947 0.8461 0.5246
vn 0.0613 0.8867 0.4583
vn 0.0405 0.9470 0.3186
vn 0.0490 0.9227 0.3824
vn 0.0354 0.9617 0.2719
vn 0.0370 0.9573 0.2866
vn 0.0000 0.8949 0.4462
vn 0.0000 0.8800 0.4750
vn 0.0824 0.8686 0.4885
vn 0.1046 0.8461 0.5227
vn 0.0000 0.9094 0.4160
vn 0.0000 0.9479 0.3186
vn 0.0000 0.9290 0.3701
vn 0.0000 0.9600 0.2800
vn 0.0000 0.9559 0.2936
vn 0.1013 0.8441 0.5266
vn 0.0000 0.8849 0.4659
vn -0.0952 0.9447 0.3138
vn -0.0766 0.9202 0.3838
vn -0.0584 0.9549 0.2910
vn -0.0895 0.9654 0.2448
vn -0.0554 0.9870 0.1511
vn -0.0512 0.9651 0.2566
vn -0.0335 0.9694 0.2434
vn -0.0238 0.9979 0.0602
vn -0.1027 0.9034 0.4164
vn -0.0965 0.8824 0.4604
vn -0.1389 0.8496 0.5089
vn -0.1047 0.8477 0.5201
vn 0.0366 0.8512 0.5236
vn -0.1221 0.8474 0.5167
vn -0.1404 0.8329 0.5353
vn -0.1139 0.8336 0.5405
vn 0.0718 0.8652 0.4962
vn 0.1089 0.8993 0.4235
vn 0.1387 0.9222 0.3610
vn 0.1517 0.9324 0.3281
vn 0.0980 0.9516 0.2912
vn -0.0761 0.8503 0.5207
vn 0.0583 0.8540 0.5171
vn 0.0846 0.8691 0.4874
vn 0.1108 0.9052 0.4103
vn 0.1334 0.9271 0.3503
vn 0.1447 0.9347 0.3247
vn 0.1080 0.9495 0.2947
vn -0.0821 0.8569 0.5088
vn -0.0820 0.8590 0.5053
vn -0.0703 0.8694 0.4890
vn -0.0866 0.8537 0.5135
vn -0.0947 0.8461 0.5246
vn -0.0613 0.8867 0.4583
vn -0.0490 0.9227 0.3824
vn -0.0405 0.9470 0.3186
vn -0.0370 0.9573 0.2866
vn -0.0354 0.9617 0.2719
vn -0.1046 0.8461 0.5227
vn -0.0824 0.8686 0.4885
vn -0.1013 0.8441 0.5266
# 90 vertex normals

vt 0.0000 1.0000 0.0000
# 1 texture coords

g Object005
usemtl Material__26
s 64
f 1/1/1 2/1/2 3/1/3 
f 3/1/3 4/1/4 1/1/1 
f 5/1/5 6/1/6 7/1/7 
f 7/1/7 8/1/8 5/1/5 
f 9/1/9 1/1/1 4/1/4 
f 4/1/4 10/1/10 9/1/9 
f 2/1/2 5/1/5 8/1/8 
f 8/1/8 3/1/3 2/1/2 
f 11/1/11 12/1/12 13/1/13 
f 13/1/13 14/1/14 11/1/11 
f 15/1/15 11/1/11 14/1/14 
f 14/1/14 16/1/16 15/1/15 
f 12/1/12 10/1/10 17/1/17 
f 17/1/17 13/1/13 12/1/12 
f 4/1/4 3/1/3 18/1/18 
f 18/1/18 19/1/19 4/1/4 
f 8/1/8 7/1/7 20/1/20 
f 20/1/20 21/1/21 8/1/8 
f 10/1/10 4/1/4 19/1/19 
f 19/1/19 17/1/17 10/1/10 
f 3/1/3 8/1/8 21/1/21 
f 21/1/21 18/1/18 3/1/3 
f 14/1/14 13/1/13 22/1/22 
f 22/1/22 23/1/23 14/1/14 
f 14/1/14 23/1/23 16/1/16 
f 13/1/13 17/1/17 24/1/24 
f 24/1/24 22/1/22 13/1/13 
f 19/1/19 18/1/18 25/1/25 
f 25/1/25 26/1/26 19/1/19 
f 21/1/21 20/1/20 27/1/27 
f 27/1/27 28/1/28 21/1/21 
f 17/1/17 19/1/19 26/1/26 
f 26/1/26 24/1/24 17/1/17 
f 18/1/18 21/1/21 28/1/28 
f 28/1/28 25/1/25 18/1/18 
f 23/1/23 22/1/22 29/1/29 
f 29/1/29 30/1/30 31/1/31 
f 29/1/29 31/1/31 32/1/32 
f 23/1/23 29/1/29 32/1/32 
f 32/1/32 31/1/31 33/1/33 
f 33/1/33 34/1/33 32/1/32 
f 22/1/22 24/1/24 35/1/34 
f 35/1/34 29/1/29 22/1/22 
f 26/1/26 25/1/25 36/1/35 
f 36/1/35 37/1/36 26/1/26 
f 28/1/28 27/1/27 38/1/37 
f 38/1/37 39/1/38 28/1/28 
f 24/1/24 26/1/26 37/1/36 
f 37/1/36 35/1/34 24/1/24 
f 25/1/25 28/1/28 39/1/38 
f 39/1/38 36/1/35 25/1/25 
f 29/1/29 40/1/39 41/1/40 
f 41/1/40 30/1/30 29/1/29 
f 34/1/33 33/1/33 42/1/41 
f 42/1/41 43/1/42 34/1/33 
f 35/1/34 44/1/43 40/1/39 
f 40/1/39 29/1/29 35/1/34 
f 36/1/35 45/1/44 46/1/45 
f 46/1/45 37/1/36 36/1/35 
f 38/1/37 47/1/46 48/1/47 
f 48/1/47 39/1/38 38/1/37 
f 37/1/36 46/1/45 44/1/43 
f 44/1/43 35/1/34 37/1/36 
f 39/1/38 48/1/47 45/1/44 
f 45/1/44 36/1/35 39/1/38 
f 31/1/31 30/1/30 33/1/33 
f 16/1/16 23/1/23 32/1/32 
f 49/1/48 16/1/16 32/1/32 
f 34/1/33 49/1/48 32/1/32 
f 41/1/40 50/1/49 42/1/41 
f 30/1/30 41/1/40 42/1/41 
f 33/1/33 30/1/30 42/1/41 
f 43/1/42 49/1/48 34/1/33 
f 51/1/50 52/1/51 53/1/52 
f 53/1/52 54/1/53 51/1/50 
f 55/1/54 56/1/55 57/1/56 
f 57/1/56 58/1/57 55/1/54 
f 59/1/58 60/1/59 52/1/51 
f 52/1/51 51/1/50 59/1/58 
f 54/1/53 53/1/52 56/1/55 
f 56/1/55 55/1/54 54/1/53 
f 61/1/60 62/1/61 63/1/62 
f 63/1/62 64/1/63 61/1/60 
f 65/1/64 66/1/65 62/1/61 
f 62/1/61 61/1/60 65/1/64 
f 64/1/63 63/1/62 67/1/66 
f 67/1/66 60/1/59 64/1/63 
f 52/1/51 68/1/67 69/1/68 
f 69/1/68 53/1/52 52/1/51 
f 56/1/55 70/1/69 71/1/70 
f 71/1/70 57/1/56 56/1/55 
f 60/1/59 67/1/66 68/1/67 
f 68/1/67 52/1/51 60/1/59 
f 53/1/52 69/1/68 70/1/69 
f 70/1/69 56/1/55 53/1/52 
f 62/1/61 72/1/71 73/1/72 
f 73/1/72 63/1/62 62/1/61 
f 62/1/61 66/1/65 72/1/71 
f 63/1/62 73/1/72 74/1/73 
f 74/1/73 67/1/66 63/1/62 
f 68/1/67 75/1/74 76/1/75 
f 76/1/75 69/1/68 68/1/67 
f 70/1/69 77/1/76 78/1/77 
f 78/1/77 71/1/70 70/1/69 
f 67/1/66 74/1/73 75/1/74 
f 75/1/74 68/1/67 67/1/66 
f 69/1/68 76/1/75 77/1/76 
f 77/1/76 70/1/69 69/1/68 
f 79/1/78 80/1/79 81/1/80 
f 82/1/81 79/1/78 81/1/80 
f 72/1/71 82/1/81 81/1/80 
f 72/1/71 81/1/80 73/1/72 
f 82/1/81 83/1/82 84/1/82 
f 84/1/82 79/1/78 82/1/81 
f 73/1/72 81/1/80 85/1/83 
f 85/1/83 74/1/73 73/1/72 
f 75/1/74 86/1/84 87/1/85 
f 87/1/85 76/1/75 75/1/74 
f 77/1/76 88/1/86 89/1/87 
f 89/1/87 78/1/77 77/1/76 
f 74/1/73 85/1/83 86/1/84 
f 86/1/84 75/1/74 74/1/73 
f 76/1/75 87/1/85 88/1/86 
f 88/1/86 77/1/76 76/1/75 
f 81/1/80 80/1/79 41/1/40 
f 41/1/40 40/1/39 81/1/80 
f 83/1/82 90/1/88 91/1/89 
f 91/1/89 84/1/82 83/1/82 
f 85/1/83 81/1/80 40/1/39 
f 40/1/39 44/1/43 85/1/83 
f 87/1/85 86/1/84 46/1/45 
f 46/1/45 45/1/44 87/1/85 
f 89/1/87 88/1/86 48/1/47 
f 48/1/47 47/1/46 89/1/87 
f 86/1/84 85/1/83 44/1/43 
f 44/1/43 46/1/45 86/1/84 
f 88/1/86 87/1/85 45/1/44 
f 45/1/44 48/1/47 88/1/86 
f 79/1/78 84/1/82 80/1/79 
f 82/1/81 72/1/71 66/1/65 
f 82/1/81 66/1/65 92/1/90 
f 83/1/82 82/1/81 92/1/90 
f 91/1/89 50/1/49 41/1/40 
f 91/1/89 41/1/40 80/1/79 
f 84/1/82 91/1/89 80/1/79 
f 90/1/88 83/1/82 92/1/90 
# 146 faces

