^F:\SCHOOL\G3D\PROJECT\SHOWROOM2\SHOWROOM2\DEBUG\SHOWROOM2.OBJ|F:\SCHOOL\G3D\PROJECT\SHOWROOM2\SHOWROOM2\DEBUG\STDAFX.OBJ
/OUT:"F:\SCHOOL\G3D\PROJECT\SHOWROOM2\DEBUG\SHOWROOM2.EXE" /INCREMENTAL /NOLOGO KERNEL32.LIB USER32.LIB GDI32.LIB WINSPOOL.LIB COMDLG32.LIB ADVAPI32.LIB SHELL32.LIB OLE32.LIB OLEAUT32.LIB UUID.LIB ODBC32.LIB ODBCCP32.LIB /MANIFEST /MANIFESTUAC:"level='asInvoker' uiAccess='false'" /manifest:embed /DEBUG:FASTLINK /PDB:"F:\SCHOOL\G3D\PROJECT\SHOWROOM2\DEBUG\SHOWROOM2.PDB" /SUBSYSTEM:CONSOLE /TLBID:1 /DYNAMICBASE /NXCOMPAT /IMPLIB:"F:\SCHOOL\G3D\PROJECT\SHOWROOM2\DEBUG\SHOWROOM2.LIB" /MACHINE:X86 DEBUG\SHOWROOM2.OBJDEBUG\STDAFX.OBJ
^K:\FACULTATE\SHOWROOM AUTO\SHOWROOM2\DEBUG\SHOWROOM2.OBJ|K:\FACULTATE\SHOWROOM AUTO\SHOWROOM2\DEBUG\STDAFX.OBJ
/OUT:"K:\FACULTATE\SHOWROOM AUTO\DEBUG\SHOWROOM2.EXE" /INCREMENTAL /NOLOGO KERNEL32.LIB USER32.LIB GDI32.LIB WINSPOOL.LIB COMDLG32.LIB ADVAPI32.LIB SHELL32.LIB OLE32.LIB OLEAUT32.LIB UUID.LIB ODBC32.LIB ODBCCP32.LIB /MANIFEST /MANIFESTUAC:"level='asInvoker' uiAccess='false'" /manifest:embed /DEBUG:FASTLINK /PDB:"K:\FACULTATE\SHOWROOM AUTO\DEBUG\SHOWROOM2.PDB" /SUBSYSTEM:CONSOLE /TLBID:1 /DYNAMICBASE /NXCOMPAT /IMPLIB:"K:\FACULTATE\SHOWROOM AUTO\DEBUG\SHOWROOM2.LIB" /MACHINE:X86 DEBUG\SHOWROOM2.OBJDEBUG\STDAFX.OBJ
